{"count":1154,"next":"https://pokeapi.co/api/v2/pokemon?offset=151&limit=151","previous":null,
"results":[
    {"name":"1","url":"walkcycle_0000.png"},
    {"name":"2","url":"walkcycle_0002.png"},
    {"name":"3","url":"walkcycle_0004.png"},
    {"name":"4","url":"walkcycle_0007.png"},
    {"name":"5","url":"walkcycle_0010.png"},
    {"name":"6","url":"walkcycle_0012.png"},
    {"name":"7","url":"walkcycle_0014.png"},
    {"name":"8","url":"walkcycle_0016.png"},
    {"name":"9","url":"walkcycle_0018.png"},
    {"name":"10","url":"walkcycle_0021.png"},
    {"name":"11","url":"walkcycle_0024.png"},
    {"name":"12","url":"walkcycle_0026.png"}
]}